simulation/qsim/I2Codec.msim.vcd
$comment
	File created using the following command:
		vcd file I2Codec.msim.vcd -direction
$end
$date
	Fri Dec 26 15:53:29 2014
$end
$version
	ModelSim Version 10.1d
$end
$timescale
	1ps
$end
$scope module I2Codec_vlg_vec_tst $end
$var reg 1 ! clk $end
$var reg 1 " treg_sda_o $end
$var reg 18 # suich [17:0] $end
$var wire 1 $ clk_100 $end
$var wire 1 % clk_200 $end
$var wire 1 & sda_o $end
$var wire 1 ' slc_o $end
$var wire 1 ( sampler $end
$scope module i1 $end
$var wire 1 ) gnd $end
$var wire 1 * vcc $end
$var wire 1 + unknown $end
$var tri1 1 , devclrn $end
$var tri1 1 - devpor $end
$var tri1 1 . devoe $end
$var wire 1 / inst|Add1~2_combout $end
$var wire 1 0 inst|Add1~8_combout $end
$var wire 1 1 inst|SDA_s~0_combout $end
$var wire 1 2 inst|ack_leido~9_combout $end
$var wire 1 3 inst|astop~regout $end
$var wire 1 4 inst|astop~0_combout $end
$var wire 1 5 inst|msg[3]~_emulated_regout $end
$var wire 1 6 inst|msg[3]~19_combout $end
$var wire 1 7 inst|msg[2]~_emulated_regout $end
$var wire 1 8 inst|msg[2]~22_combout $end
$var wire 1 9 inst|msg[2]~23_combout $end
$var wire 1 : inst|msg[1]~_emulated_regout $end
$var wire 1 ; inst|msg[1]~26_combout $end
$var wire 1 < inst|msg[1]~27_combout $end
$var wire 1 = inst|msg[0]~_emulated_regout $end
$var wire 1 > inst|msg[0]~30_combout $end
$var wire 1 ? inst|msg[0]~31_combout $end
$var wire 1 @ inst|addr_aenviar[6]~0_combout $end
$var wire 1 A inst|addr_aenviar[4]~1_combout $end
$var wire 1 B inst|addr_aenviar[3]~2_combout $end
$var wire 1 C inst|addr_aenviar[2]~3_combout $end
$var wire 1 D inst|msg[2]~21_combout $end
$var wire 1 E inst|msg[1]~25_combout $end
$var wire 1 F inst|msg[0]~29_combout $end
$var wire 1 G clk~combout $end
$var wire 1 H clk~clkctrl_outclk $end
$var wire 1 I inst|addr_aenviar[0]~feeder_combout $end
$var wire 1 J inst|addr_aenviar[5]~feeder_combout $end
$var wire 1 K inst|addr_aenviar[1]~feeder_combout $end
$var wire 1 L sda_o~0 $end
$var wire 1 M inst|estado.standby~feeder_combout $end
$var wire 1 N suich[17]~clkctrl_outclk $end
$var wire 1 O inst|estado.standby~regout $end
$var wire 1 P inst|Add0~0_combout $end
$var wire 1 Q inst|Add0~1 $end
$var wire 1 R inst|Add0~3 $end
$var wire 1 S inst|Add0~4_combout $end
$var wire 1 T inst|Add0~2_combout $end
$var wire 1 U inst|Equal1~0_combout $end
$var wire 1 V inst|Add0~9 $end
$var wire 1 W inst|Add0~10_combout $end
$var wire 1 X inst|Add0~14_combout $end
$var wire 1 Y inst|Equal0~3_combout $end
$var wire 1 Z inst|contador100~2_combout $end
$var wire 1 [ inst|Add0~11 $end
$var wire 1 \ inst|Add0~12_combout $end
$var wire 1 ] inst|contador100~1_combout $end
$var wire 1 ^ inst|Add0~13 $end
$var wire 1 _ inst|Add0~15 $end
$var wire 1 ` inst|Add0~16_combout $end
$var wire 1 a inst|contador100~0_combout $end
$var wire 1 b inst|Add0~5 $end
$var wire 1 c inst|Add0~6_combout $end
$var wire 1 d inst|Add0~7 $end
$var wire 1 e inst|Add0~8_combout $end
$var wire 1 f inst|Equal0~0_combout $end
$var wire 1 g inst|Equal0~1_combout $end
$var wire 1 h inst|Equal0~2_combout $end
$var wire 1 i inst|clk_100khz~0_combout $end
$var wire 1 j inst|clk_100khz~regout $end
$var wire 1 k inst|SLC~1_combout $end
$var wire 1 l inst|Add1~0_combout $end
$var wire 1 m inst|Add1~4_combout $end
$var wire 1 n inst|contador200~2_combout $end
$var wire 1 o inst|Add1~7 $end
$var wire 1 p inst|Add1~9 $end
$var wire 1 q inst|Add1~11 $end
$var wire 1 r inst|Add1~12_combout $end
$var wire 1 s inst|Add1~13 $end
$var wire 1 t inst|Add1~14_combout $end
$var wire 1 u inst|Equal2~1_combout $end
$var wire 1 v inst|contador200~1_combout $end
$var wire 1 w inst|Add1~10_combout $end
$var wire 1 x inst|Equal3~0_combout $end
$var wire 1 y inst|contador200~0_combout $end
$var wire 1 z inst|Add1~1 $end
$var wire 1 { inst|Add1~3 $end
$var wire 1 | inst|Add1~5 $end
$var wire 1 } inst|Add1~6_combout $end
$var wire 1 ~ inst|Equal2~0_combout $end
$var wire 1 !! inst|clk_200khz~0_combout $end
$var wire 1 "! inst|clk_200khz~regout $end
$var wire 1 #! inst|clk_200khz~clkctrl_outclk $end
$var wire 1 $! inst|estado~17_combout $end
$var wire 1 %! inst|estado.start~regout $end
$var wire 1 &! inst|estado~14_combout $end
$var wire 1 '! inst|cont[0]~2_combout $end
$var wire 1 (! inst|ack_leido~10_combout $end
$var wire 1 )! inst|ack_leido~11_combout $end
$var wire 1 *! inst|liberada~0_combout $end
$var wire 1 +! inst|liberada~1_combout $end
$var wire 1 ,! inst|liberada~2_combout $end
$var wire 1 -! inst|liberada~regout $end
$var wire 1 .! inst|ack_leido~8_combout $end
$var wire 1 /! inst|ack_leido~13_combout $end
$var wire 1 0! inst|ack_leido~12_combout $end
$var wire 1 1! inst|ack_leido~regout $end
$var wire 1 2! inst|cont[0]~1_combout $end
$var wire 1 3! inst|Add2~1_combout $end
$var wire 1 4! inst|Add2~0_combout $end
$var wire 1 5! inst|cont~0_combout $end
$var wire 1 6! inst|Equal4~0_combout $end
$var wire 1 7! inst|estado~15_combout $end
$var wire 1 8! inst|estado~16_combout $end
$var wire 1 9! inst|estado.direccion~regout $end
$var wire 1 :! inst|process_1~2_combout $end
$var wire 1 ;! inst|estado~18_combout $end
$var wire 1 <! inst|estado~19_combout $end
$var wire 1 =! inst|estado~20_combout $end
$var wire 1 >! inst|estado.ack~regout $end
$var wire 1 ?! inst|process_1~3_combout $end
$var wire 1 @! inst|estado~23_combout $end
$var wire 1 A! inst|estado~22_combout $end
$var wire 1 B! inst|estado.datos~regout $end
$var wire 1 C! inst|process_1~4_combout $end
$var wire 1 D! inst|estado~21_combout $end
$var wire 1 E! inst|estado.stop~regout $end
$var wire 1 F! inst|SDA_s~1_combout $end
$var wire 1 G! inst|SDA_s~2_combout $end
$var wire 1 H! inst|msg[5]~9_combout $end
$var wire 1 I! inst|msg[4]~13_combout $end
$var wire 1 J! inst|msg[3]~17_combout $end
$var wire 1 K! inst|msg[3]~18_combout $end
$var wire 1 L! inst|primer_msg~0_combout $end
$var wire 1 M! inst|primer_msg~regout $end
$var wire 1 N! inst|process_1~5_combout $end
$var wire 1 O! inst|msg[4]~15_combout $end
$var wire 1 P! inst|msg[4]~_emulated_regout $end
$var wire 1 Q! inst|msg[4]~14_combout $end
$var wire 1 R! inst|msg[5]~11_combout $end
$var wire 1 S! inst|msg[5]~_emulated_regout $end
$var wire 1 T! inst|msg[5]~10_combout $end
$var wire 1 U! inst|msg[6]~7_combout $end
$var wire 1 V! inst|msg[6]~_emulated_regout $end
$var wire 1 W! inst|msg[6]~5_combout $end
$var wire 1 X! inst|msg[6]~6_combout $end
$var wire 1 Y! inst|msg[7]~3_combout $end
$var wire 1 Z! inst|msg[7]~_emulated_regout $end
$var wire 1 [! inst|msg[7]~1_combout $end
$var wire 1 \! inst|msg[7]~2_combout $end
$var wire 1 ]! inst|SDA_s~3_combout $end
$var wire 1 ^! inst|SDA_s~4_combout $end
$var wire 1 _! inst|SDA_s~5_combout $end
$var wire 1 `! inst|SDA_s~6_combout $end
$var wire 1 a! inst|SDA_s~7_combout $end
$var wire 1 b! inst|SDA_s~regout $end
$var wire 1 c! inst|addr_aenviar [7] $end
$var wire 1 d! inst|addr_aenviar [6] $end
$var wire 1 e! inst|addr_aenviar [5] $end
$var wire 1 f! inst|addr_aenviar [4] $end
$var wire 1 g! inst|addr_aenviar [3] $end
$var wire 1 h! inst|addr_aenviar [2] $end
$var wire 1 i! inst|addr_aenviar [1] $end
$var wire 1 j! inst|addr_aenviar [0] $end
$var wire 1 k! inst|cont [3] $end
$var wire 1 l! inst|cont [2] $end
$var wire 1 m! inst|cont [1] $end
$var wire 1 n! inst|cont [0] $end
$var wire 1 o! suich~combout [17] $end
$var wire 1 p! suich~combout [16] $end
$var wire 1 q! suich~combout [15] $end
$var wire 1 r! suich~combout [14] $end
$var wire 1 s! suich~combout [13] $end
$var wire 1 t! suich~combout [12] $end
$var wire 1 u! suich~combout [11] $end
$var wire 1 v! suich~combout [10] $end
$var wire 1 w! suich~combout [9] $end
$var wire 1 x! suich~combout [8] $end
$var wire 1 y! suich~combout [7] $end
$var wire 1 z! suich~combout [6] $end
$var wire 1 {! suich~combout [5] $end
$var wire 1 |! suich~combout [4] $end
$var wire 1 }! suich~combout [3] $end
$var wire 1 ~! suich~combout [2] $end
$var wire 1 !" suich~combout [1] $end
$var wire 1 "" suich~combout [0] $end
$var wire 1 #" inst|contador200 [7] $end
$var wire 1 $" inst|contador200 [6] $end
$var wire 1 %" inst|contador200 [5] $end
$var wire 1 &" inst|contador200 [4] $end
$var wire 1 '" inst|contador200 [3] $end
$var wire 1 (" inst|contador200 [2] $end
$var wire 1 )" inst|contador200 [1] $end
$var wire 1 *" inst|contador200 [0] $end
$var wire 1 +" inst|contador100 [8] $end
$var wire 1 ," inst|contador100 [7] $end
$var wire 1 -" inst|contador100 [6] $end
$var wire 1 ." inst|contador100 [5] $end
$var wire 1 /" inst|contador100 [4] $end
$var wire 1 0" inst|contador100 [3] $end
$var wire 1 1" inst|contador100 [2] $end
$var wire 1 2" inst|contador100 [1] $end
$var wire 1 3" inst|contador100 [0] $end
$upscope $end
$upscope $end
$enddefinitions $end
#0
$dumpvars
0!
z"
b0x1101011010101010 #
0$
0%
z&
z'
x(
0)
1*
x+
1,
1-
1.
0/
00
01
12
03
04
05
16
07
18
09
0:
1;
1<
0=
0>
1?
1@
1A
1B
1C
1D
1E
0F
0G
0H
0I
0J
0K
zL
1M
0N
0O
1P
0Q
1R
0S
0T
0U
0V
0W
0X
0Y
0Z
1[
0\
0]
0^
1_
0`
0a
0b
0c
1d
0e
0f
0g
0h
0i
0j
1k
1l
0m
0n
1o
0p
1q
0r
0s
0t
0u
0v
0w
0x
0y
0z
1{
0|
0}
0~
0!!
0"!
0#!
1$!
0%!
0&!
1'!
0(!
0)!
0*!
0+!
0,!
0-!
0.!
0/!
00!
01!
02!
03!
04!
05!
16!
07!
08!
09!
0:!
1;!
1<!
0=!
0>!
0?!
0@!
1A!
0B!
0C!
0D!
0E!
1F!
1G!
0H!
1I!
0J!
0K!
0L!
0M!
1N!
1O!
0P!
1Q!
1R!
0S!
0T!
1U!
0V!
1W!
1X!
0Y!
0Z!
1[!
1\!
0]!
0^!
0_!
1`!
0a!
0b!
0j!
0i!
0h!
0g!
0f!
0e!
0d!
0c!
0n!
0m!
0l!
0k!
0""
1!"
0~!
1}!
0|!
1{!
0z!
1y!
0x!
1w!
1v!
0u!
1t!
0s!
1r!
1q!
zp!
0o!
z*"
0)"
0("
0'"
0&"
0%"
0$"
0#"
03"
02"
01"
00"
0/"
0."
0-"
0,"
0+"
$end
#10000
1!
1G
1H
0(
13"
1z
0l
1Q
0P
1/
1T
1g
1y
#20000
0!
0G
0H
1(
#30000
1!
1G
1H
0(
1)"
03"
12"
0{
0/
0z
1l
0Q
1P
0R
0T
1m
0y
1{
1/
1R
1T
0g
1S
0m
1y
0S
1a
0a
#40000
0!
0G
0H
1(
#50000
1!
1G
1H
0(
13"
1z
0l
1Q
0P
0{
0/
0R
0T
1g
1m
0y
1S
1a
#60000
0!
0G
0H
1(
#70000
1!
1G
1H
0(
0)"
11"
03"
1("
02"
1{
1/
1b
0S
0z
1l
0Q
1P
1|
0m
1R
1T
0|
1m
1y
1c
0a
0/
0T
0g
1}
0b
1S
0}
1~
0y
0c
1a
0~
#80000
0!
0G
0H
1(
#90000
1!
1G
1H
0(
13"
1z
0l
1Q
0P
1/
1T
1g
1y
#100000
0!
0G
0H
1(
#110000
1!
1G
1H
0(
1)"
03"
12"
0{
0/
0z
1l
0Q
1P
0R
0T
1|
0m
0y
1{
1/
1R
1T
0g
1b
0S
1}
0|
1m
1y
0b
1S
1c
0a
0}
0c
1a
#120000
0!
0G
0H
1(
#130000
1!
1G
1H
0(
13"
1z
0l
1Q
0P
0{
0/
0R
0T
1g
1|
0m
0y
1b
0S
1}
1c
0a
0g
#140000
0!
0G
0H
1(
#150000
1!
1G
1H
0(
0)"
10"
01"
03"
0("
1'"
02"
1{
1/
0d
0c
0b
1S
0z
1l
0Q
1P
0|
1m
0o
0}
1R
1T
0m
1y
1e
1d
1c
1a
0/
0T
1o
1}
10
0S
1u
0e
1~
0y
00
1n
0a
1!!
0n
0u
0!!
#160000
0!
0G
0H
1(
#170000
1!
1G
1H
0(
13"
1z
0l
1Q
0P
1/
0~
1T
1y
#180000
0!
0G
0H
1(
#190000
1!
1G
1H
0(
1)"
03"
12"
0{
0/
0z
1l
0Q
1P
0R
0T
1m
1~
0y
1{
1/
1R
1T
1S
0m
0~
1y
0S
1a
0a
#200000
0!
0G
0H
1(
#210000
1!
1G
1H
0(
13"
1z
0l
1Q
0P
0{
0/
0R
0T
1m
0y
1S
1a
#220000
0!
0G
0H
1(
#230000
1!
1G
1H
0(
0)"
11"
03"
1("
02"
1{
1/
1b
0S
0z
1l
0Q
1P
1|
0m
1R
1T
0|
1m
1y
0d
0c
0a
0/
0T
0o
0}
0b
1S
1o
1}
1e
0y
10
1d
1c
1a
00
1~
1n
0e
0n
#240000
0!
0G
0H
1(
#250000
1!
1G
1H
0(
13"
1z
0l
1Q
0P
1/
0~
1T
1y
#260000
0!
0G
0H
1(
#270000
1!
1G
1H
0(
1)"
03"
12"
0{
0/
0z
1l
0Q
1P
0R
0T
1|
0m
1~
0y
1{
1/
1R
1T
1b
0S
0o
0}
0|
1m
0~
1y
0b
1S
0d
0c
0a
10
1o
1}
1d
1c
1a
1e
1n
00
0e
0n
#280000
0!
0G
0H
1(
#290000
1!
1G
1H
0(
13"
1z
0l
1Q
0P
0{
0/
0R
0T
1|
0m
0y
1b
0S
0o
0}
0d
0c
0a
10
1e
1g
1u
1n
#300000
0!
0G
0H
1(
#310000
1!
1G
1H
0(
0)"
1&"
00"
01"
03"
0("
0'"
1/"
02"
1{
1/
1p
00
1d
1c
0b
1S
0z
1l
0Q
1P
0|
1m
1o
1}
1V
0e
1R
1T
0m
1y
1w
0u
0n
0V
1e
0g
0c
1a
0/
0T
0}
0p
10
1W
0S
1u
1v
0y
1n
0W
0w
1Z
0a
0v
0Z
#320000
0!
0G
0H
1(
#330000
1!
1G
1H
0(
13"
1z
0l
1Q
0P
1/
1T
1g
1y
1f
#340000
0!
0G
0H
1(
#350000
1!
1G
1H
0(
1)"
03"
12"
0{
0/
0z
1l
0Q
1P
0R
0T
1m
0y
1{
1/
1R
1T
0g
1S
0f
0u
0m
1y
0S
1a
1u
1f
0a
#360000
0!
0G
0H
1(
#370000
1!
1G
1H
0(
13"
1z
0l
1Q
0P
0{
0/
0R
0T
1g
1m
0y
1S
0f
0u
1a
#380000
0!
0G
0H
1(
#390000
1!
1G
1H
0(
0)"
11"
03"
1("
02"
1{
1/
1b
0S
0z
1l
0Q
1P
1|
0m
1R
1T
0|
1m
1y
1c
1f
0a
0/
0T
0g
1}
1u
0b
1S
0}
0u
1~
0y
0f
0c
1a
0~
#400000
0!
0G
0H
1(
#410000
1!
1G
1H
0(
13"
1z
0l
1Q
0P
1/
1T
1g
1y
#420000
0!
0G
0H
1(
#430000
1!
1G
1H
0(
1)"
03"
12"
0{
0/
0z
1l
0Q
1P
0R
0T
1|
0m
0y
1{
1/
1R
1T
0g
1b
0S
1}
1u
0|
1m
1y
0b
1S
1f
1c
0a
0}
0u
0c
0f
1a
#440000
0!
0G
0H
1(
#450000
1!
1G
1H
0(
13"
1z
0l
1Q
0P
0{
0/
0R
0T
1g
1|
0m
0y
1b
0S
1}
1u
1c
0a
0g
#460000
0!
0G
0H
1(
#470000
1!
1G
1H
0(
0)"
10"
01"
03"
0("
1'"
02"
1{
1/
0d
0c
0b
1S
0z
1l
0Q
1P
0|
1m
0o
0}
1R
1T
0m
1y
1V
0e
1d
1c
1a
0/
0T
1o
1}
0u
1p
00
0S
1W
0V
1e
1~
0y
0p
10
0n
1w
0a
1Z
0W
0w
1u
1n
0~
1v
0Z
1~
0v
1!!
#480000
0!
0G
0H
1(
#490000
1!
1G
1H
0(
1"!
13"
1#!
1z
0l
1Q
0P
1%
1/
0~
1T
1y
1f
#500000
0!
0G
0H
1(
#510000
1!
1G
1H
0(
1)"
03"
12"
0{
0/
0z
1l
0Q
1P
0R
0T
1m
1~
0y
1{
1/
1R
1T
1S
0f
0u
0m
0~
1y
0S
1a
1u
1f
0a
#520000
0!
0G
0H
1(
#530000
1!
1G
1H
0(
13"
1z
0l
1Q
0P
0{
0/
0R
0T
1m
0y
1S
0f
0u
1a
#540000
0!
0G
0H
1(
#550000
1!
1G
1H
0(
0)"
11"
03"
1("
02"
1{
1/
1b
0S
0z
1l
0Q
1P
1|
0m
1R
1T
0|
1m
1y
0d
0c
1f
0a
0/
0T
0o
0}
1u
0b
1S
1o
1}
0u
1V
0e
0y
0f
1p
00
1d
1c
1a
0p
10
1~
0n
1W
1w
0V
1e
0w
1n
1Z
0~
1v
0W
1~
0v
0Z
#560000
0!
0G
0H
1(
#570000
1!
1G
1H
0(
13"
1z
0l
1Q
0P
1/
0~
1T
1y
#580000
0!
0G
0H
1(
#590000
1!
1G
1H
0(
1)"
03"
12"
0{
0/
0z
1l
0Q
1P
0R
0T
1|
0m
1~
0y
1{
1/
1R
1T
1b
0S
0o
0}
1u
0|
1m
0~
1y
0b
1S
1f
0d
0c
0a
1p
00
1o
1}
0u
1d
1c
0f
1a
1V
0e
1w
0n
0p
10
0V
1e
1W
1v
0w
1n
0W
1Z
0v
0Z
#600000
0!
0G
0H
1(
#610000
1!
1G
1H
0(
13"
1z
0l
1Q
0P
0{
0/
0R
0T
1|
0m
0y
1b
0S
0o
0}
1u
0d
0c
0a
1p
00
1V
0e
1g
1w
0u
0n
1W
1v
1h
1Z
1Y
#620000
0!
0G
0H
1(
#630000
1!
1G
1H
0(
0)"
1%"
0&"
00"
01"
1."
03"
0("
0'"
0/"
02"
1{
1/
0q
0w
0p
10
1d
1c
0b
1S
0[
0W
0z
1l
0Q
1P
0|
1m
1o
1}
0V
1e
1R
1T
0m
1y
1r
0v
1q
1w
1n
0e
0g
0Y
0c
1a
1\
0h
0Z
0/
0T
0}
00
1[
1W
0S
0r
1v
0a
1]
1Z
0y
0n
0\
0]
#640000
0!
0G
0H
1(
#650000
1!
1G
1H
0(
13"
1z
0l
1Q
0P
1/
1T
1g
1Y
1y
1x
1h
#660000
0!
0G
0H
1(
#670000
1!
1G
1H
0(
1)"
03"
12"
0{
0/
0z
1l
0Q
1P
0R
0T
1m
0y
0x
1{
1/
1R
1T
0g
0Y
1S
1y
0m
0S
0h
1a
0a
#680000
0!
0G
0H
1(
#690000
1!
1G
1H
0(
13"
1z
0l
1Q
0P
0{
0/
1x
0R
0T
1g
1Y
1m
0y
0x
1S
1h
1a
#700000
0!
0G
0H
1(
#710000
1!
1G
1H
0(
0)"
11"
03"
1("
02"
1{
1/
1b
0S
0z
1l
0Q
1P
1|
0m
1R
1T
0|
1m
1y
1c
0a
0/
0T
0g
0Y
1}
0b
1S
0}
0y
0h
1a
0c
#720000
0!
0G
0H
1(
#730000
1!
1G
1H
0(
13"
1z
0l
1Q
0P
1/
1T
1g
1Y
1y
1x
1h
#740000
0!
0G
0H
1(
#750000
1!
1G
1H
0(
1)"
03"
12"
0{
0/
0z
1l
0Q
1P
0R
0T
1|
0m
0y
0x
1{
1/
1R
1T
0g
0Y
1b
0S
1}
1y
0|
1m
0b
1S
0h
0a
1c
0}
0c
1a
#760000
0!
0G
0H
1(
#770000
1!
1G
1H
0(
13"
1z
0l
1Q
0P
0{
0/
1x
0R
0T
1g
1Y
1|
0m
0y
0x
1b
0S
1h
1}
1c
0a
0g
0Y
0h
#780000
0!
0G
0H
1(
#790000
1!
1G
1H
0(
0)"
10"
01"
03"
0("
1'"
02"
1{
1/
0d
0c
0b
1S
0z
1l
0Q
1P
0|
1m
0o
0}
1R
1T
0m
1y
1e
1d
1c
1a
0/
0T
1o
1}
10
0S
1u
0e
0y
00
1n
0a
0n
0u
#800000
0!
0G
0H
1(
#810000
1!
1G
1H
0(
13"
1z
0l
1Q
0P
1/
1T
1y
#820000
0!
0G
0H
1(
#830000
1!
1G
1H
0(
1)"
03"
12"
0{
0/
0z
1l
0Q
1P
0R
0T
1m
0y
1{
1/
1R
1T
1S
0m
1y
0S
1a
0a
#840000
0!
0G
0H
1(
#850000
1!
1G
1H
0(
13"
1z
0l
1Q
0P
0{
0/
0R
0T
1m
0y
1S
1a
#860000
0!
0G
0H
1(
#870000
1!
1G
1H
0(
0)"
11"
03"
1("
02"
1{
1/
1b
0S
0z
1l
0Q
1P
1|
0m
1R
1T
0|
1m
1y
0d
0c
0a
0/
0T
0o
0}
0b
1S
1o
1}
1e
0y
10
1d
1c
1a
00
1n
0e
0n
#880000
0!
0G
0H
1(
#890000
1!
1G
1H
0(
13"
1z
0l
1Q
0P
1/
1T
1y
#900000
0!
0G
0H
1(
#910000
1!
1G
1H
0(
1)"
03"
12"
0{
0/
0z
1l
0Q
1P
0R
0T
1|
0m
0y
1{
1/
1R
1T
1b
0S
0o
0}
0|
1m
1y
0b
1S
0d
0c
0a
10
1o
1}
1d
1c
1a
1e
1n
00
0e
0n
#920000
0!
0G
0H
1(
#930000
1!
1G
1H
0(
13"
1z
0l
1Q
0P
0{
0/
0R
0T
1|
0m
0y
1b
0S
0o
0}
0d
0c
0a
10
1e
1g
1Y
1u
1n
1h
#940000
0!
0G
0H
1(
#950000
1!
1G
1H
0(
0)"
1&"
00"
01"
03"
0("
0'"
1/"
02"
1{
1/
1p
00
1d
1c
0b
1S
0z
1l
0Q
1P
0|
1m
1o
1}
1V
0e
1R
1T
0m
1y
0q
0w
0u
0n
0V
1e
0g
0Y
0c
1a
0/
0T
0}
0p
10
0[
0W
0S
1u
1r
0v
0y
1n
1[
1W
0h
0a
0Z
1q
1w
1\
1v
0u
0\
1Z
0r
1]
0]
1u
#960000
0!
0G
0H
1(
#970000
1!
1G
1H
0(
13"
1z
0l
1Q
0P
1/
1T
1g
1Y
1y
1x
1f
1h
0!!
0y
0v
0n
1i
#980000
0!
0G
0H
1(
#990000
1!
1G
1H
0(
0"!
0%"
0&"
1j
03"
12"
0#!
0w
00
0z
1l
0Q
1P
0R
0T
0%
1$
0x
0u
0/
1R
1T
0g
0Y
1S
0f
0S
0h
1a
1f
0a
#1000000
0!
0G
0H
1(
#1010000
1!
1G
1H
0(
13"
1z
0l
1Q
0P
1/
0R
0T
1g
1Y
1y
1S
0f
1h
1a
#1020000
0!
0G
0H
1(
#1030000
1!
1G
1H
0(
1)"
11"
03"
02"
0{
0/
1b
0S
0z
1l
0Q
1P
1R
1T
1m
0y
1c
1f
0a
1{
1/
0T
0g
0Y
0b
1S
0m
1y
0f
0h
1a
0c
#1040000
0!
0G
0H
1(
#1050000
1!
1G
1H
0(
13"
1z
0l
1Q
0P
0{
0/
1T
1g
1Y
1m
0y
1h
#1060000
0!
0G
0H
1(
#1070000
1!
1G
1H
0(
0)"
03"
1("
12"
1{
1/
0z
1l
0Q
1P
1|
0m
0R
0T
0|
1m
1y
0/
1R
1T
0g
0Y
1}
1b
0S
0}
1~
0y
0b
1S
1f
0h
0a
1c
0~
0c
0f
1a
#1080000
0!
0G
0H
1(
#1090000
1!
1G
1H
0(
13"
1z
0l
1Q
0P
1/
0R
0T
1g
1Y
1y
1b
0S
1h
1c
0a
0g
0Y
0h
#1100000
0!
0G
0H
1(
#1110000
1!
1G
1H
0(
1)"
10"
01"
03"
02"
0{
0/
0d
0c
0b
1S
0z
1l
0Q
1P
1R
1T
1|
0m
0y
1V
0e
1d
1c
1a
1{
1/
0T
0S
1}
0[
0W
0V
1e
0|
1m
1y
0a
1\
0Z
1[
1W
0}
1]
0\
1Z
0]
#1120000
0!
0G
0H
1(
#1130000
1!
1G
1H
0(
13"
1z
0l
1Q
0P
0{
0/
1T
1|
0m
0y
1f
1}
#1140000
0!
0G
0H
1(
#1150000
1!
1G
1H
0(
0)"
03"
0("
1'"
12"
1{
1/
0z
1l
0Q
1P
0|
1m
0o
0}
0R
0T
0m
1y
0/
1R
1T
1o
1}
10
1S
0f
1u
1~
0y
0S
00
1n
1a
1!!
0n
1f
0a
0u
0!!
#1160000
0!
0G
0H
1(
#1170000
1!
1G
1H
0(
13"
1z
0l
1Q
0P
1/
0~
0R
0T
1y
1S
0f
1a
#1180000
0!
0G
0H
1(
#1190000
1!
1G
1H
0(
1)"
11"
03"
02"
0{
0/
1b
0S
0z
1l
0Q
1P
1R
1T
1m
1~
0y
0d
0c
1f
0a
1{
1/
0T
0b
1S
1V
0e
0m
0~
1y
0f
1d
1c
1a
0[
0W
0V
1e
1\
0Z
1[
1W
1]
0\
1Z
0]
#1200000
0!
0G
0H
1(
#1210000
1!
1G
1H
0(
13"
1z
0l
1Q
0P
0{
0/
1T
1m
0y
#1220000
0!
0G
0H
1(
#1230000
1!
1G
1H
0(
0)"
03"
1("
12"
1{
1/
0z
1l
0Q
1P
1|
0m
0R
0T
0|
1m
1y
0/
1R
1T
0o
0}
1b
0S
1o
1}
0y
0b
1S
1f
10
0d
0c
0a
00
1~
1d
1c
0f
1a
1n
1V
0e
0n
0V
1e
0[
0W
1[
1W
1\
0Z
0\
1Z
1]
0]
#1240000
0!
0G
0H
1(
#1250000
1!
1G
1H
0(
13"
1z
0l
1Q
0P
1/
0~
0R
0T
1y
1b
0S
0d
0c
0a
1V
0e
1g
1Y
0[
0W
1h
1\
0h
0Z
0Y
1]
#1260000
0!
0G
0H
1(
#1270000
1!
1G
1H
0(
1)"
00"
01"
1-"
0."
03"
0/"
02"
0{
0/
1d
1c
0b
1S
1^
0\
1[
1W
0z
1l
0Q
1P
0V
1e
1R
1T
1|
0m
1~
0y
0e
0g
0c
1a
1X
0]
0^
1\
1h
1Z
1{
1/
0T
0W
0S
0o
0}
0h
0X
1]
0|
1m
0~
1y
0Z
0a
10
1o
1}
1n
00
0n
#1280000
b1x1101011010101010 #
0!
1o!
0G
0H
1N
1(
#1290000
1!
1G
1H
0(
13"
1z
0l
1Q
0P
0{
0/
1T
1g
1|
0m
0y
0o
0}
10
1u
1n
#1300000
0!
0G
0H
1(
#1310000
1!
1G
1H
0(
0)"
1&"
03"
0("
0'"
12"
1{
1/
1p
00
0z
1l
0Q
1P
0|
1m
1o
1}
0R
0T
0m
1y
1w
0u
0n
0/
1R
1T
0g
0}
0p
10
1S
1u
1v
0y
1n
0S
0w
1a
0v
0a
#1320000
0!
0G
0H
1(
#1330000
1!
1G
1H
0(
13"
1z
0l
1Q
0P
1/
0R
0T
1g
1y
1S
1a
1U
#1340000
0!
0G
0H
1(
#1350000
1!
1G
1H
0(
1)"
11"
03"
02"
0{
0/
1b
0S
0z
1l
0Q
1P
1R
1T
1m
0y
1c
0a
0U
1{
1/
0T
0g
0b
1S
0u
1a
0m
1y
1U
0c
1u
#1360000
0!
0G
0H
1(
#1370000
1!
1G
1H
0(
13"
1z
0l
1Q
0P
0{
0/
1T
1g
1m
0y
0U
0u
#1380000
0!
0G
0H
1(
#1390000
1!
1G
1H
0(
0)"
03"
1("
12"
1{
1/
0z
1l
0Q
1P
1|
0m
0R
0T
0|
1m
1y
0/
1R
1T
0g
1}
1u
1b
0S
1U
0}
0u
1~
0y
0b
1S
0U
1c
0a
0~
0c
1a
#1400000
0!
0G
0H
1(
#1410000
1!
1G
1H
0(
13"
1z
0l
1Q
0P
1/
0R
0T
1g
1y
1b
0S
1U
1c
0a
0U
0g
#1420000
0!
0G
0H
1(
#1430000
1!
1G
1H
0(
1)"
10"
01"
03"
02"
0{
0/
0d
0c
0b
1S
0z
1l
0Q
1P
1R
1T
1|
0m
0y
1e
1d
1c
1a
1{
1/
0T
0S
1}
1u
0e
0|
1m
1y
0a
0}
0u
#1440000
0!
0G
0H
1(
#1450000
1!
1G
1H
0(
13"
1z
0l
1Q
0P
0{
0/
1T
1|
0m
0y
1}
1u
#1460000
0!
0G
0H
1(
#1470000
1!
1G
1H
0(
0)"
03"
0("
1'"
12"
1{
1/
0z
1l
0Q
1P
0|
1m
0o
0}
0R
0T
0m
1y
0/
1R
1T
1o
1}
0u
1p
00
1S
1~
0y
0S
0p
10
0n
1w
1a
0a
0w
1u
1n
0~
1v
1~
0v
1!!
#1480000
0!
0G
0H
1(
#1490000
1!
1G
1H
0(
1"!
13"
1#!
1z
0l
1Q
0P
1%
1/
0~
0R
0T
1y
1S
1a
1U
1%!
1O
0G!
17!
0$!
0`!
18!
1a!
#1500000
0!
0G
0H
1(
#1510000
1!
1G
1H
0(
1)"
11"
03"
02"
0{
0/
1b
0S
0z
1l
0Q
1P
1R
1T
1m
1~
0y
0d
0c
0a
0U
1{
1/
0T
0b
1S
0u
1e
1a
0m
0~
1y
1U
1d
1c
0U
1u
0e
1U
#1520000
0!
0G
0H
1(
#1530000
1!
1G
1H
0(
13"
1z
0l
1Q
0P
0{
0/
1T
1m
0y
0U
0u
#1540000
0!
0G
0H
1(
#1550000
1!
1G
1H
0(
0)"
03"
1("
12"
1{
1/
0z
1l
0Q
1P
1|
0m
0R
0T
0|
1m
1y
0/
1R
1T
0o
0}
1u
1b
0S
1U
1o
1}
0u
0y
0b
1S
0U
1p
00
0d
0c
0a
0p
10
1~
0n
1d
1c
1a
1w
1e
0w
1n
0e
0~
1v
1~
0v
#1560000
0!
0G
0H
1(
